…
## factor
若变量是连续型的，则需要将变量离散化，因此factor出现了,否则报错Error: A continuous variable can not be mapped to shape

```r
ggplot(mtcars, aes(x = mpg, y = qsec, col = cyl, shape = factor(am), size = (hp/wt))) +
  geom_point()
```

<img src="01_files/figure-html/unnamed-chunk-6-1.png" width="672" />

```r
> diamonds
# A tibble: 1,000 x 10
   carat cut       color clarity depth table price     x     y     z
 * <dbl> <ord>     <ord> <ord>   <dbl> <dbl> <int> <dbl> <dbl> <dbl>
 1  0.31 Ideal     G     VS1      62.4    55   802  4.35  4.33  2.71
 2  1.5  Good      G     SI2      64.3    57  8190  7.29  7.2   4.66
 3  0.9  Premium   H     VS2      62.8    58  3810  6.17  6.13  3.86
 4  1.01 Ideal     F     VS2      60.9    58  7411  6.43  6.47  3.93
 5  0.33 Very Good D     VS1      63.2    56  1109  4.45  4.44  2.81
 6  1.08 Ideal     G     VS1      62      55  6779  6.62  6.57  4.09
 7  1.07 Premium   G     SI1      61.6    58  5453  6.6   6.56  4.05
 8  0.33 Premium   H     VS1      59.5    59   743  4.53  4.48  2.68
 9  0.44 Ideal     H     IF       62      57  1255  4.87  4.91  3.02
10  1    Premium   G     VS1      58.6    61  6989  6.57  6.5   3.83
# ... with 990 more rows
```
…
